name,x,y
337.JPG,2119,1764
484.JPG,1648,915
484.JPG,2126,945
124.JPG,2416,2329
100.JPG,2776,2085
229.JPG,1819,2260
398.JPG,2827,1740
12.JPG,5940,592
12.JPG,1828,1293
127.JPG,2090,2444
399.JPG,2434,1075
183.JPG,2836,1849
304.JPG,2604,1322
296.JPG,2844,1721
165.JPG,2977,1884
290.JPG,2519,1439
290.JPG,3001,1481
116.JPG,1597,2598
196.JPG,1854,2040
303.JPG,3024,1919
414.JPG,2203,2360
257.JPG,2500,1934
493.JPG,2570,1438
164.JPG,1584,2132
164.JPG,1560,2164
403.JPG,2519,1439
403.JPG,2982,1483
163.JPG,2199,1685
378.JPG,2410,2038
96.JPG,1635,2576
117.JPG,1025,1139
470.JPG,1674,2360
470.JPG,1660,2398
498.JPG,2805,1623
184.JPG,2087,2236
401.JPG,1815,2384
401.JPG,1790,2418
